{
  "project_info": {
    "project_number": "1041354637337",
    "firebase_url": "https://cse438-project3-tonyajiang.firebaseio.com",
    "project_id": "cse438-project3-tonyajiang",
    "storage_bucket": "cse438-project3-tonyajiang.appspot.com"
  },
  "client": [
    {
      "client_info": {
        "mobilesdk_app_id": "1:1041354637337:android:79fe6ae0561209d4",
        "android_client_info": {
          "package_name": "com.example.cse438.blackjack"
        }
      },
      "oauth_client": [
        {
          "client_id": "1041354637337-m4i838unq0acmos3dul28lmmullbqoaf.apps.googleusercontent.com",
          "client_type": 1,
          "android_info": {
            "package_name": "com.example.cse438.blackjack",
            "certificate_hash": "9a88d4bbf4ccbd838b9432e4f5cca1a6c797057a"
          }
        },
        {
          "client_id": "1041354637337-hgn59kth3s79o75fuaes7bild17oakn1.apps.googleusercontent.com",
          "client_type": 3
        }
      ],
      "api_key": [
        {
          "current_key": "AIzaSyD7idpfn3UOJek2oQ2eIz30ynnMwW3UEgc"
        }
      ],
      "services": {
        "analytics_service": {
          "status": 1
        },
        "appinvite_service": {
          "status": 2,
          "other_platform_oauth_client": [
            {
              "client_id": "1041354637337-hgn59kth3s79o75fuaes7bild17oakn1.apps.googleusercontent.com",
              "client_type": 3
            }
          ]
        },
        "ads_service": {
          "status": 2
        }
      }
    }
  ],
  "configuration_version": "1"
}